Vehicle_Physical_Damage_Limit
-1           17338
 25000      146600
 35000       27138
 50000      167950
 100000      61109
 250000       3629
 500000        642
 1000000        25
dtype: int64
--------------------------------------------------------------
